{
  "project_info": {
    "project_number": "64697992930",
    "firebase_url": "https://tato-39eb1.firebaseio.com",
    "project_id": "tato-39eb1",
    "storage_bucket": "tato-39eb1.appspot.com"
  },
  "client": [
    {
      "client_info": {
        "mobilesdk_app_id": "1:64697992930:android:12750c52e016b4c97880bb",
        "android_client_info": {
          "package_name": "com.example.myapp"
        }
      },
      "oauth_client": [
        {
          "client_id": "64697992930-7qsniaosb0dmupjanhqronos89oveqs0.apps.googleusercontent.com",
          "client_type": 3
        }
      ],
      "api_key": [
        {
          "current_key": "AIzaSyA6y2uhjDfCN8ohusurkckZtHWG3ogOYTA"
        }
      ],
      "services": {
        "appinvite_service": {
          "other_platform_oauth_client": [
            {
              "client_id": "64697992930-7qsniaosb0dmupjanhqronos89oveqs0.apps.googleusercontent.com",
              "client_type": 3
            }
          ]
        }
      }
    }
  ],
  "configuration_version": "1"
}